…
```r
steps_avg
```

```
## # A tibble: 61 × 4
##          date steps_sum steps_mean steps_median
##        <date>     <int>      <dbl>        <dbl>
## 1  2012-10-01         0        NaN           NA
## 2  2012-10-02       126    0.43750            0
## 3  2012-10-03     11352   39.41667            0
## 4  2012-10-04     12116   42.06944            0
## 5  2012-10-05     13294   46.15972            0
## 6  2012-10-06     15420   53.54167            0
## 7  2012-10-07     11015   38.24653            0
## 8  2012-10-08         0        NaN           NA
## 9  2012-10-09     12811   44.48264            0
## 10 2012-10-10      9900   34.37500            0
## # ... with 51 more rows
```
…
